{
    "name": "Skynet",
    "encryptConfig": -1,
    "globalHTTPTimeout": 15000000000,
    "database": {
     "enabled": false,
     "verbose": false,
     "driver": "sqlite3",
     "connectionDetails": {
      "host": "",
      "port": 0,
      "username": "",
      "password": "",
      "database": "gocryptotrader.db",
      "sslmode": ""
     }
    },
    "logging": {
     "enabled": true,
     "level": "ERROR",
     "output": "console",
     "fileSettings": {
      "filename": "log.txt",
      "rotate": true,
      "maxsize": 100
     },
     "advancedSettings": {
      "showLogSystemName": false,
      "spacer": " | ",
      "timeStampFormat": " 02/01/2006 15:04:05 ",
      "headers": {
       "info": "[INFO]",
       "warn": "[WARN]",
       "debug": "[DEBUG]",
       "error": "[ERROR]"
      }
     }
    },
    "connectionMonitor": {
     "preferredDNSList": [
      "8.8.8.8",
      "8.8.4.4",
      "1.1.1.1",
      "1.0.0.1"
     ],
     "preferredDomainList": [
      "www.google.com",
      "www.cloudflare.com",
      "www.facebook.com"
     ],
     "checkInterval": 1000000000
    },
    "profiler": {
     "enabled": false,
     "mutex_profile_fraction": 0
    },
    "ntpclient": {
     "enabled": 0,
     "pool": [
      "0.pool.ntp.org:123",
      "pool.ntp.org:123"
     ],
     "allowedDifference": 50000000,
     "allowedNegativeDifference": 50000000
    },
    "gctscript": {
     "enabled": false,
     "timeout": 30000000000,
     "max_virtual_machines": 10,
     "allow_imports": false,
     "auto_load": null,
     "verbose": false
    },
    "currencyConfig": {
     "forexProviders": [
      {
       "name": "CurrencyConverter",
       "enabled": false,
       "verbose": false,
       "restPollingDelay": 600,
       "apiKey": "Key",
       "apiKeyLvl": -1,
       "primaryProvider": false
      },
      {
       "name": "CurrencyLayer",
       "enabled": false,
       "verbose": false,
       "restPollingDelay": 600,
       "apiKey": "Key",
       "apiKeyLvl": -1,
       "primaryProvider": false
      },
      {
       "name": "Fixer",
       "enabled": false,
       "verbose": false,
       "restPollingDelay": 600,
       "apiKey": "Key",
       "apiKeyLvl": -1,
       "primaryProvider": false
      },
      {
       "name": "OpenExchangeRates",
       "enabled": false,
       "verbose": false,
       "restPollingDelay": 600,
       "apiKey": "Key",
       "apiKeyLvl": -1,
       "primaryProvider": false
      },
      {
       "name": "ExchangeRates",
       "enabled": false,
       "verbose": false,
       "restPollingDelay": 600,
       "apiKey": "Key",
       "apiKeyLvl": -1,
       "primaryProvider": true
      }
     ],
     "cryptocurrencyProvider": {
      "name": "CoinMarketCap",
      "enabled": false,
      "verbose": false,
      "apiKey": "Key",
      "accountPlan": "accountPlan"
     },
     "cryptocurrencies": "BTC,LTC,ETH,DOGE,DASH,XRP,XMR",
     "currencyPairFormat": {
      "uppercase": true,
      "delimiter": "-"
     },
     "fiatDisplayCurrency": "USD",
     "currencyFileUpdateDuration": 0,
     "foreignExchangeUpdateDuration": 0
    },
    "communications": {
     "slack": {
      "name": "Slack",
      "enabled": true,
      "verbose": true,
      "targetChannel": "bot",
      "verificationToken": "xoxp-1750624996948-1757086745761-1730114856247-659b64987fe0726d820e54d922f7f241"
     },
     "smsGlobal": {
      "name": "SMSGlobal",
      "from": "Skynet",
      "enabled": true,
      "verbose": false,
      "username": "1234",
      "password": "12334",
      "contacts": [
       {
        "name": "StyleGherkin",
        "number": "1231424",
        "enabled": true
       }
      ]
     },
     "smtp": {
      "name": "SMTP",
      "enabled": false,
      "verbose": false,
      "host": "smtp.google.com",
      "port": "537",
      "accountName": "some",
      "accountPassword": "password",
      "from": "",
      "recipientList": "lol123@gmail.com"
     },
     "telegram": {
      "name": "Telegram",
      "enabled": false,
      "verbose": false,
      "verificationToken": "testest"
     }
    },
    "remoteControl": {
     "username": "admin",
     "password": "Password",
     "gRPC": {
      "enabled": true,
      "listenAddress": "localhost:9052",
      "grpcProxyEnabled": true,
      "grpcProxyListenAddress": "localhost:9053"
     },
     "deprecatedRPC": {
      "enabled": true,
      "listenAddress": "localhost:9050"
     },
     "websocketRPC": {
      "enabled": true,
      "listenAddress": "localhost:9051",
      "connectionLimit": 1,
      "maxAuthFailures": 3,
      "allowInsecureOrigin": true
     }
    },
    "portfolioAddresses": {
     "addresses": [
      {
       "Address": "1JCe8z4jJVNXSjohjM4i9Hh813dLCNx2Sy",
       "CoinType": "BTC",
       "Balance": 53000.01741264,
       "Description": "",
       "WhiteListed": false,
       "ColdStorage": false,
       "SupportedExchanges": ""
      },
      {
       "Address": "3Nxwenay9Z8Lc9JBiywExpnEFiLp6Afp8v",
       "CoinType": "BTC",
       "Balance": 107848.28963408,
       "Description": "",
       "WhiteListed": false,
       "ColdStorage": false,
       "SupportedExchanges": ""
      },
      {
       "Address": "LgY8ahfHRhvjVQC1zJnBhFMG5pCTMuKRqh",
       "CoinType": "LTC",
       "Balance": 0.03665026,
       "Description": "",
       "WhiteListed": false,
       "ColdStorage": false,
       "SupportedExchanges": ""
      },
      {
       "Address": "0xb794f5ea0ba39494ce839613fffba74279579268",
       "CoinType": "ETH",
       "Balance": 0.25555604051326,
       "Description": "",
       "WhiteListed": false,
       "ColdStorage": false,
       "SupportedExchanges": ""
      }
     ]
    },
    "exchanges": [
{
   "name": "Bithumb",
   "enabled": true,
   "verbose": false,
   "httpTimeout": 10000000000,
   "websocketResponseCheckTimeout": 30000000,
   "websocketResponseMaxLimit": 7000000000,
   "websocketTrafficTimeout": 30000000000,
   "websocketOrderbookBufferLimit": 5,
   "baseCurrencies": "KRW",
   "currencyPairs": {
    "requestFormat": {
     "uppercase": true
    },
    "configFormat": {
     "uppercase": true,
     "index": "KRW"
    },
    "useGlobalFormat": true,
    "assetTypes": [
     "spot"
    ],
    "pairs": {
     "spot": {
      "enabled": "BTCKRW,ETHKRW,DASHKRW,LTCKRW,ETCKRW,XRPKRW,BCHKRW,ZECKRW,QTUMKRW,BTGKRW,EOSKRW",
      "available": "BHPKRW,STEEMKRW,GTOKRW,ETCKRW,STRATKRW,FXKRW,LTCKRW,MIXKRW,THETAKRW,QTUMKRW,ADAKRW,MCOKRW,INSKRW,RDNKRW,CONKRW,FABKRW,ETHKRW,HDACKRW,BTCKRW,POWRKRW,CMTKRW,LBAKRW,ETHOSKRW,HCKRW,ETZKRW,PPTKRW,XVGKRW,WTCKRW,TMTGKRW,LOOMKRW,WETKRW,ABTKRW,ITCKRW,GXCKRW,ORBSKRW,ICXKRW,BSVKRW,MXCKRW,MITHKRW,ZECKRW,AEKRW,SALTKRW,ARNKRW,TRUEKRW,ENJKRW,GNTKRW,PLYKRW,REPKRW,ZRXKRW,BTGKRW,APISKRW,QKCKRW,LRCKRW,DVPKRW,DADKRW,CHRKRW,BCHKRW,NPXSKRW,PIVXKRW,AMOKRW,RNTKRW,XEMKRW,FCTKRW,WOMKRW,WAXPKRW,DACKRW,OMGKRW,PCMKRW,CROKRW,FNBKRW,ANKRKRW,EOSKRW,KNCKRW,OCNKRW,MTLKRW,XSRKRW,VALORKRW,TRVKRW,AUTOKRW,HYCKRW,AOAKRW,BTTKRW,MBLKRW,VETKRW,XRPKRW,ZILKRW,ELFKRW,LAMBKRW,POLYKRW,IOSTKRW,BZNTKRW,DASHKRW,CTXCKRW,BATKRW,FZZKRW,PAYKRW,BCDKRW,SNTKRW,WAVESKRW,XLMKRW,LINKKRW,OGOKRW,WICCKRW,TRXKRW"
     }
    }
   },
   "api": {
    "authenticatedSupport": true,
    "authenticatedWebsocketApiSupport": true,
    "endpoints": {
     "url": "NON_DEFAULT_HTTP_LINK_TO_EXCHANGE_API",
     "urlSecondary": "NON_DEFAULT_HTTP_LINK_TO_EXCHANGE_API",
     "websocketURL": "NON_DEFAULT_HTTP_LINK_TO_WEBSOCKET_EXCHANGE_API"
    },
    "credentials": {
     "key": "31259b5b74ccf65f96f3410f75130700",
     "secret": "127ec81a9b027339b319a5369aa761a8",
     "clientID": "xrp"
    },
    "credentialsValidator": {
     "requiresKey": true,
     "requiresSecret": true
    }
   },
   "features": {
    "supports": {
     "restAPI": true,
     "restCapabilities": {
      "tickerBatching": true,
      "autoPairUpdates": true
     },
     "websocketAPI": false,
     "websocketCapabilities": {}
    },
    "enabled": {
     "autoPairUpdates": true,
     "websocketAPI": false
    }
   },
   "bankAccounts": [
    {
     "enabled": false,
     "bankName": "",
     "bankAddress": "",
     "bankPostalCode": "",
     "bankPostalCity": "",
     "bankCountry": "",
     "accountName": "",
     "accountNumber": "",
     "swiftCode": "",
     "iban": "",
     "supportedCurrencies": ""
    }
   ]
}
],
 "bankAccounts": [
  {
   "enabled": false,
   "bankName": "test",
   "bankAddress": "test",
   "bankPostalCode": "",
   "bankPostalCity": "",
   "bankCountry": "",
   "accountName": "TestAccount",
   "accountNumber": "0234",
   "swiftCode": "91272837",
   "iban": "98218738671897",
   "supportedCurrencies": "USD",
   "supportedExchanges": "Kraken,Bitstamp"
  }
 ]
}
